/* XPM */
static char * ct_cyn_up_xpm[] = {
"5 23 24 1",
" 	c None",
".	c #2F3855",
"+	c #C7DEEE",
"@	c #C3DBED",
"#	c #BCD8EC",
"$	c #B4D5EB",
"%	c #ADD1EA",
"&	c #A5CEE9",
"*	c #9ECBE8",
"=	c #97C7E7",
"-	c #8FC4E6",
";	c #88C1E5",
">	c #80BDE4",
",	c #79BAE3",
"'	c #72B6E2",
")	c #6AB3E1",
"!	c #63B0E0",
"~	c #5BACDF",
"{	c #54A9DE",
"]	c #4DA6DD",
"^	c #45A2DC",
"/	c #3E9FDB",
"(	c #379CD9",
"_	c #364D98",
".....",
"+++++",
"@@@@@",
"#####",
"$$$$$",
"%%%%%",
"&&&&&",
"*****",
"=====",
"-----",
";;;;;",
">>>>>",
",,,,,",
"'''''",
")))))",
"!!!!!",
"~~~~~",
"{{{{{",
"]]]]]",
"^^^^^",
"/////",
"(((((",
"_____"};
