/* XPM */
static char * ct_gry_up_xpm[] = {
"5 23 23 1",
" 	c None",
".	c #5A5A5A",
"+	c #F8F8F8",
"@	c #F6F6F6",
"#	c #F3F3F3",
"$	c #F0F0F0",
"%	c #EDEDED",
"&	c #EAEAEA",
"*	c #E7E7E7",
"=	c #E4E4E4",
"-	c #E1E1E1",
";	c #DEDEDE",
">	c #DBDBDB",
",	c #D8D8D8",
"'	c #D5D5D5",
")	c #D2D2D2",
"!	c #CFCFCF",
"~	c #CCCCCC",
"{	c #C9C9C9",
"]	c #C6C6C6",
"^	c #C3C3C3",
"/	c #C0C0C0",
"(	c #BFBFBF",
".....",
"+++++",
"@@@@@",
"#####",
"$$$$$",
"%%%%%",
"&&&&&",
"*****",
"=====",
"-----",
";;;;;",
">>>>>",
",,,,,",
"'''''",
")))))",
"!!!!!",
"~~~~~",
"{{{{{",
"]]]]]",
"^^^^^",
"/////",
"(((((",
"....."};
