/* XPM */
static char * ct_orn_dn_xpm[] = {
"5 23 23 1",
" 	c None",
".	c #3C1B00",
"+	c #F6ECE4",
"@	c #E9D2C0",
"#	c #CEA27E",
"$	c #B77E4F",
"%	c #A96A37",
"&	c #A4632E",
"*	c #A3622D",
"=	c #A76733",
"-	c #AE713F",
";	c #B57B4B",
">	c #BB8457",
",	c #C49269",
"'	c #D2A987",
")	c #DAB79A",
"!	c #E4C9B3",
"~	c #E7CFBB",
"{	c #EEDCCE",
"]	c #DFC0A7",
"^	c #D5AE8E",
"/	c #CB9D78",
"(	c #592800",
".....",
"+++++",
"@@@@@",
"#####",
"$$$$$",
"%%%%%",
"&&&&&",
"*****",
"&&&&&",
"=====",
"-----",
";;;;;",
">>>>>",
",,,,,",
"'''''",
")))))",
"!!!!!",
"~~~~~",
"{{{{{",
"]]]]]",
"^^^^^",
"/////",
"((((("};
