/* XPM */
static char * ct_yel_dn_xpm[] = {
"5 23 23 1",
" 	c None",
".	c #303C00",
"+	c #F2F6E4",
"@	c #E0E9C0",
"#	c #BECE7E",
"$	c #A2B74F",
"%	c #92A937",
"&	c #8CA42E",
"*	c #8BA32D",
"=	c #8FA733",
"-	c #97AE3F",
";	c #9FB54B",
">	c #A7BB57",
",	c #B1C469",
"'	c #C3D287",
")	c #CDDA9A",
"!	c #DAE4B3",
"~	c #DEE7BB",
"{	c #E7EECE",
"]	c #D3DFA7",
"^	c #C6D58E",
"/	c #BACB78",
"(	c #475900",
".....",
"+++++",
"@@@@@",
"#####",
"$$$$$",
"%%%%%",
"&&&&&",
"*****",
"&&&&&",
"=====",
"-----",
";;;;;",
">>>>>",
",,,,,",
"'''''",
")))))",
"!!!!!",
"~~~~~",
"{{{{{",
"]]]]]",
"^^^^^",
"/////",
"((((("};
