/* XPM */
static char * ct_yel_up_xpm[] = {
"5 23 23 1",
" 	c None",
".	c #303C00",
"+	c #F4FAE4",
"@	c #F3F8DE",
"#	c #EEF6D2",
"$	c #EAF4C8",
"%	c #E8F3C1",
"&	c #E4F1B9",
"*	c #E0EEB0",
"=	c #DFECA8",
"-	c #D8E99D",
";	c #D5E894",
">	c #D4E68E",
",	c #D0E385",
"'	c #CDE17D",
")	c #CADF75",
"!	c #C7DD6F",
"~	c #C4DB69",
"{	c #C1D961",
"]	c #BDD658",
"^	c #BAD454",
"/	c #B7D14D",
"(	c #B6D04C",
".....",
"+++++",
"@@@@@",
"#####",
"$$$$$",
"%%%%%",
"&&&&&",
"*****",
"=====",
"-----",
";;;;;",
">>>>>",
",,,,,",
"'''''",
")))))",
"!!!!!",
"~~~~~",
"{{{{{",
"]]]]]",
"^^^^^",
"/////",
"(((((",
"....."};
