/* XPM */
static char * lt_yel_dn_xpm[] = {
"5 23 49 1",
" 	c None",
".	c #303C00",
"+	c #F3F7E7",
"@	c #F1F5E1",
"#	c #E4ECC8",
"$	c #323F00",
"%	c #EEF3DC",
"&	c #E2EAC3",
"*	c #C6D58E",
"=	c #F2F6E4",
"-	c #CFDC9F",
";	c #AFC265",
">	c #435400",
",	c #EDF2D9",
"'	c #DAE4B3",
")	c #BECE7E",
"!	c #A3B851",
"~	c #657E00",
"{	c #CDDA9A",
"]	c #ABBF5F",
"^	c #9CB246",
"/	c #A5BA55",
"(	c #9BB144",
"_	c #668000",
":	c #688202",
"<	c #D9E3B1",
"[	c #C4D38A",
"}	c #9FB54B",
"|	c #AABE5D",
"1	c #AEC163",
"2	c #B4C66D",
"3	c #6F890A",
"4	c #D3DFA7",
"5	c #C0D083",
"6	c #6B8505",
"7	c #D5E0A9",
"8	c #CAD895",
"9	c #D6E1AC",
"0	c #4B5E00",
"a	c #DCE6B8",
"b	c #DEE7BB",
"c	c #465800",
"d	c #425300",
"e	c #EAF0D3",
"f	c #576D00",
"g	c #B7C973",
"h	c #506400",
"i	c #BACB78",
"j	c #475900",
"    .",
"   .+",
"  .@#",
" $%&*",
"$=&-;",
">,')!",
"~#{]^",
"~')/(",
"_')!^",
":<[/}",
":<*|/",
":<*]1",
":<{22",
"34{5)",
"67488",
"_4997",
"0{<ab",
"c89a&",
"d)*<e",
" _)84",
"  fg*",
"   hi",
"    j"};
