/* XPM */
static char * rt_yel_up_xpm[] = {
"5 23 44 1",
" 	c None",
".	c #303C00",
"+	c #F4FAE4",
"@	c #F3F8DE",
"#	c #EEF6D2",
"$	c #F0F7D9",
"%	c #EAF4C8",
"&	c #EEF5CF",
"*	c #E8F3C1",
"=	c #F0F7D5",
"-	c #E4F1B9",
";	c #4D6000",
">	c #E0EFAF",
",	c #E7F1BD",
"'	c #4A5C00",
")	c #DFECA8",
"!	c #E0EDAB",
"~	c #586E00",
"{	c #D8EA9C",
"]	c #DCEB9F",
"^	c #DDEBA3",
"/	c #D5E894",
"(	c #D8E997",
"_	c #D4E68E",
":	c #D0E385",
"<	c #CFE381",
"[	c #556A00",
"}	c #CDE17D",
"|	c #CADF75",
"1	c #C8DE72",
"2	c #C7DD6F",
"3	c #C5DC6A",
"4	c #506400",
"5	c #C4DB69",
"6	c #C1D963",
"7	c #465800",
"8	c #BFD75D",
"9	c #BDD658",
"0	c #C1D961",
"a	c #BDD65A",
"b	c #B9D351",
"c	c #BBD454",
"d	c #B7D14D",
"e	c #B6D04C",
".    ",
"+.   ",
"@+.  ",
"#$+. ",
"%&$+.",
"*%&=.",
"--*%;",
">>-,'",
")!!>~",
"{{]^~",
"//((~",
"____~",
"::<<[",
"}}}|~",
"|1234",
"23567",
"5689.",
"0a9b.",
"9cde.",
"cde. ",
"de.  ",
"e.   ",
".    "};
